Chapitre 1 Les données spatiales | Cartographie avec R
…
st_write(obj = mtq, "data/mtq.shp", delete_layer = TRUE)

Deleting layer `mtq' using driver `ESRI Shapefile'
Writing layer `mtq' to data source `data/mtq.shp' using driver `ESRI Shapefile'
features:       34
fields:         23
geometry type:  Polygon

1.1.4 Affichage de données

Aperçu des variables via les fonctions head() et plot().

head(mtq)

Simple feature collection with 6 features and 23 fields
geometry type:  POLYGON
dimension:      XY
bbox:           xmin: 695444.4 ymin: 1598817 xmax: 717731.2 ymax: 1645182
epsg (SRID):    32620
proj4string:    +proj=utm +zone=20 +datum=WGS84 +units=m +no_defs
  INSEE_COM         STATUT            LIBGEO P13_POP  C13_POP   C13_CS1   C13_CS2
1     97201 Commune simple L'Ajoupa-Bouillon    1830 1481.801  9.780866  48.90433
2     97202 Commune simple Les Anses-d'Arlet    3929 3190.115 97.433459 170.50855
3     97203 Commune simple      Basse-Pointe    3565 2983.215 39.510829  98.77707
     C13_CS3  C13_CS4  C13_CS5  C13_CS6  C13_CS7  C13_CS8 P08_POP  C08_POP  C08_CS1
1   9.780866 102.6991 273.8642 288.5355 430.3581 317.8781    1691 1346.519 31.40569
2 109.612642 239.5239 560.2424 385.6741 746.5743 880.5453    3826 3067.742 49.00453
3  43.461911 181.7498 568.9559 565.0048 940.5055 545.2494    3804 3054.108 44.51803
    C08_CS2  C08_CS3  C08_CS4  C08_CS5  C08_CS6  C08_CS7  C08_CS8
1  43.18282 11.77713 145.2513 223.7655 251.2455 380.7940 259.0969
2 143.95079 65.33937 216.3534 600.3054 459.4174 558.8020 974.5694
3 106.84327 27.70011 186.0292 448.1481 620.2845 881.5853 738.9993
                        geometry
1 POLYGON ((699261.2 1637681,...
2 POLYGON ((709840 1599026, 7...
3 POLYGON ((706092.8 1642964,...
 [ reached 'max' / getOption("max.print") -- omitted 3 rows ]
…
mtq2016 <- read.csv(file = "data/mtq2016.csv")
head(mtq2016)

     ID                NOM Population.totale
1 97201 L' Ajoupa-Bouillon              1964
2 97202  Les Anses-d'Arlet              3686
3 97203       Basse-Pointe              3238
4 97234      Bellefontaine              1760
5 97204          Le Carbet              3655
6 97205        Case-Pilote              4522

mtq <- merge(x = mtq, y = mtq2016, by.x = "INSEE_COM", by.y = "ID")
head(mtq)

Simple feature collection with 6 features and 25 fields
geometry type:  POLYGON
dimension:      XY
bbox:           xmin: 695444.4 ymin: 1598817 xmax: 717731.2 ymax: 1645182
epsg (SRID):    32620
proj4string:    +proj=utm +zone=20 +datum=WGS84 +units=m +no_defs
  INSEE_COM         STATUT            LIBGEO P13_POP  C13_POP   C13_CS1   C13_CS2
1     97201 Commune simple L'Ajoupa-Bouillon    1830 1481.801  9.780866  48.90433
2     97202 Commune simple Les Anses-d'Arlet    3929 3190.115 97.433459 170.50855
3     97203 Commune simple      Basse-Pointe    3565 2983.215 39.510829  98.77707
     C13_CS3  C13_CS4  C13_CS5  C13_CS6  C13_CS7  C13_CS8 P08_POP  C08_POP  C08_CS1
1   9.780866 102.6991 273.8642 288.5355 430.3581 317.8781    1691 1346.519 31.40569
2 109.612642 239.5239 560.2424 385.6741 746.5743 880.5453    3826 3067.742 49.00453
3  43.461911 181.7498 568.9559 565.0048 940.5055 545.2494    3804 3054.108 44.51803
    C08_CS2  C08_CS3  C08_CS4  C08_CS5  C08_CS6  C08_CS7  C08_CS8                NOM
1  43.18282 11.77713 145.2513 223.7655 251.2455 380.7940 259.0969 L' Ajoupa-Bouillon
2 143.95079 65.33937 216.3534 600.3054 459.4174 558.8020 974.5694  Les Anses-d'Arlet
3 106.84327 27.70011 186.0292 448.1481 620.2845 881.5853 738.9993       Basse-Pointe
  Population.totale                       geometry
1              1964 POLYGON ((699261.2 1637681,...
2              3686 POLYGON ((709840 1599026, 7...
3              3238 POLYGON ((706092.8 1642964,...
 [ reached 'max' / getOption("max.print") -- omitted 3 rows ]
…
